72,1,"Web of Lies"
72,2,"Web of Lies"
72,3,"Web of Lies"
72,4,"Web of Lies"
72,5,"Web of Lies"
72,6,"Web of Lies"
72,7,"Web of Lies"
72,8,"Web of Lies"
72,9,"Web of Lies"
72,10,"Web of Lies"
72,11,"Web of Lies"
72,12,"Web of Lies"
